<svg width="1e3" height="1e3" version="1.1" viewBox="0 0 264.58 264.58" xmlns="http://www.w3.org/2000/svg" xmlns:xlink="http://www.w3.org/1999/xlink">
    <g transform="translate(0 -32.417)">
        <rect x="-6.7529e-6" y="32.417" width="264.58" height="264.58" fill="#73b3e7" style="paint-order:markers fill stroke"/>
        <g transform="matrix(5.1485 0 0 5.1547 -310.62 -624.2)" stroke-width=".19411">
            <g transform="rotate(45 83.288 193.14)">
                <rect x="56.306" y="148.41" width="15.61" height="23.548" ry="1.5875" fill="#fff" stroke="#000" stroke-linecap="round" stroke-width=".05136" style="paint-order:markers fill stroke"/>
                <g transform="translate(56.174 -124.91)" stroke-width=".19411">
                    <path id="suit-0" d="m7.9375 289.86s-1.0553-2.0831-1.8673-2.8952c-0.81202-0.81203-2.8952-1.8674-2.8952-1.8674s2.0831-1.0553 2.8952-1.8674c0.81202-0.81202 1.8673-2.8952 1.8673-2.8952s1.0553 2.0831 1.8673 2.8952c0.81202 0.81203 2.8952 1.8674 2.8952 1.8674s-2.0831 1.0553-2.8952 1.8674c-0.81203 0.81202-1.8673 2.8952-1.8673 2.8952z" fill="#f00" style="paint-order:markers stroke fill"/>
                    <text id="value-9" x="2.5501692" y="277.48111" fill="#ff0000" font-family="Arial" font-size="4.4355px" letter-spacing="0px" stroke-width=".037694" text-align="center" text-anchor="middle" word-spacing="0px" style="line-height:1.25" xml:space="preserve"><tspan x="2.5501692" y="277.48111" font-family="Arial" stroke-width=".037694" text-align="center" text-anchor="middle">J</tspan></text>
                    <use transform="rotate(180 7.9375 285.09)" width="100%" height="100%" stroke-width=".19411" xlink:href="#value-9"/>
                    <use transform="matrix(.33333 0 0 .33333 10.523 180.86)" width="100%" height="100%" stroke-width=".58234" xlink:href="#suit-0"/>
                    <use transform="matrix(-.33333 0 0 -.33333 5.3519 389.33)" width="100%" height="100%" stroke-width=".58234" xlink:href="#suit-0"/>
                </g>
            </g>
            <g transform="rotate(15 87.291 159.65)">
                <rect x="80.814" y="137.89" width="15.61" height="23.548" ry="1.5875" fill="#fff" stroke="#000" stroke-linecap="round" stroke-width=".05136" style="paint-order:markers fill stroke"/>
                <g transform="translate(80.682 -135.43)" stroke-width=".19411">
                    <path id="suit" d="m7.9375 280.33a2.1911 2.1911 0 0 0-2.1915 2.1915 2.1911 2.1911 0 0 0 0.87513 1.7481 2.1911 2.1911 0 0 0-0.87513-0.1833 2.1911 2.1911 0 0 0-2.191 2.1915 2.1911 2.1911 0 0 0 2.191 2.1904 2.1911 2.1911 0 0 0 1.4082-0.51249l-0.065431 0.4671-1.3422 1.432 2.1905-0.2379 2.1915 0.2379-1.3707-1.471-0.06123-0.4518a2.1911 2.1911 0 0 0 1.432 0.53622 2.1911 2.1911 0 0 0 2.1915-2.1904 2.1911 2.1911 0 0 0-2.1915-2.1915 2.1911 2.1911 0 0 0-0.87882 0.1869 2.1911 2.1911 0 0 0 0.87882-1.7518 2.1911 2.1911 0 0 0-2.191-2.1915z" style="paint-order:markers stroke fill"/>
                    <text id="value" x="2.5501692" y="277.48111" fill="#000000" font-family="Arial" font-size="4.4355px" letter-spacing="0px" stroke-width=".037694" text-align="center" text-anchor="middle" word-spacing="0px" style="line-height:1.25" xml:space="preserve"><tspan x="2.5501692" y="277.48111" font-family="Arial" stroke-width=".037694" text-align="center" text-anchor="middle">K</tspan></text>
                    <use transform="rotate(180 7.9375 285.09)" width="100%" height="100%" stroke-width=".19411" xlink:href="#value"/>
                    <use transform="matrix(.33333 0 0 .33333 10.523 180.86)" width="100%" height="100%" stroke-width=".58234" xlink:href="#suit"/>
                    <use transform="matrix(-.33333 0 0 -.33333 5.3519 389.33)" width="100%" height="100%" stroke-width=".58234" xlink:href="#suit"/>
                </g>
            </g>
            <g transform="rotate(-15 -21.606 291.06)">
                <rect x="106.2" y="169.24" width="15.61" height="23.548" ry="1.5875" fill="#fff" stroke="#000" stroke-linecap="round" stroke-width=".05136" style="paint-order:markers fill stroke"/>
                <g transform="translate(106.07 -104.08)" stroke-width=".19411">
                    <path id="suit-6" d="m5.1859 280.38c-0.82985 0.22591-1.5408 1.0164-1.8185 1.8304-0.32156 0.94269-0.035727 2.0643 0.37153 2.9649 0.87508 1.9351 4.1983 4.6786 4.1983 4.6786s3.3234-2.7435 4.1986-4.6786c0.40732-0.90059 0.69335-2.0222 0.37184-2.9649-0.27762-0.81402-0.98867-1.6043-1.8185-1.8304-0.6263-0.17065-1.3609 0.10941-1.8836 0.49431-0.44114 0.32484-0.87024 1.3942-0.87024 1.3942s-0.42785-1.0691-0.86849-1.394c-0.52179-0.38474-1.2555-0.66479-1.881-0.4945z" fill="#f00" style="paint-order:markers stroke fill"/>
                    <text id="value-93" x="2.5501692" y="277.48111" fill="#ff0000" font-family="Arial" font-size="4.4355px" letter-spacing="0px" stroke-width=".037694" text-align="center" text-anchor="middle" word-spacing="0px" style="line-height:1.25" xml:space="preserve"><tspan x="2.5501692" y="277.48111" font-family="Arial" stroke-width=".037694" text-align="center" text-anchor="middle">Q</tspan></text>
                    <use transform="rotate(180 7.9375 285.09)" width="100%" height="100%" stroke-width=".19411" xlink:href="#value-93"/>
                    <use transform="matrix(.33333 0 0 .33333 10.523 180.86)" width="100%" height="100%" stroke-width=".58234" xlink:href="#suit-6"/>
                    <use transform="matrix(-.33333 0 0 -.33333 5.3519 389.33)" width="100%" height="100%" stroke-width=".58234" xlink:href="#suit-6"/>
                </g>
            </g>
            <g transform="rotate(-45 105.44 202.18)">
                <rect x="111.94" y="138.75" width="15.61" height="23.548" ry="1.5875" fill="#fff" stroke="#000" stroke-linecap="round" stroke-width=".05136" style="paint-order:markers fill stroke"/>
                <g transform="translate(111.8 -134.57)" stroke-width=".19411">
                    <path id="suit-4" d="m7.9376 280.33s-2.9989 2.5081-3.8024 4.2236c-0.33339 0.71183-0.60903 1.5968-0.33622 2.334 0.25316 0.68405 0.93695 1.2732 1.6468 1.4409 0.60367 0.14269 1.2962-0.13398 1.8009-0.46869l-0.15782 0.56317-1.3422 1.432 2.1904-0.23779 2.1915 0.23779-1.3707-1.471-0.14726-0.53626c0.5391 0.34123 1.2083 0.62393 1.8189 0.48084 0.71016-0.16641 1.3937-0.75685 1.6468-1.4409 0.27274-0.73723-0.0033-1.6222-0.33675-2.334-0.80356-1.7154-3.8019-4.2236-3.8019-4.2236z" style="paint-order:markers stroke fill"/>
                    <text id="value-3" x="2.5501692" y="277.48111" fill="#000000" font-family="Arial" font-size="4.4355px" letter-spacing="0px" stroke-width=".037694" text-align="center" text-anchor="middle" word-spacing="0px" style="line-height:1.25" xml:space="preserve"><tspan x="2.5501692" y="277.48111" font-family="Arial" stroke-width=".037694" text-align="center" text-anchor="middle">A</tspan></text>
                    <use transform="rotate(180 7.9375 285.09)" width="100%" height="100%" stroke-width=".19411" xlink:href="#value-3"/>
                    <use transform="matrix(.33333 0 0 .33333 10.523 180.86)" width="100%" height="100%" stroke-width=".58234" xlink:href="#suit-4"/>
                    <use transform="matrix(-.33333 0 0 -.33333 5.3519 389.33)" width="100%" height="100%" stroke-width=".58234" xlink:href="#suit-4"/>
                </g>
            </g>
        </g>
    </g>
</svg>
