<?xml version="1.0" encoding="UTF-8" standalone="no"?>
<!-- Created with Inkscape (http://www.inkscape.org/) -->

<svg
   xmlns:dc="http://purl.org/dc/elements/1.1/"
   xmlns:cc="http://creativecommons.org/ns#"
   xmlns:rdf="http://www.w3.org/1999/02/22-rdf-syntax-ns#"
   xmlns:svg="http://www.w3.org/2000/svg"
   xmlns="http://www.w3.org/2000/svg"
   xmlns:xlink="http://www.w3.org/1999/xlink"
   xmlns:sodipodi="http://sodipodi.sourceforge.net/DTD/sodipodi-0.dtd"
   xmlns:inkscape="http://www.inkscape.org/namespaces/inkscape"
   width="60"
   height="90"
   viewBox="0 0 15.875 23.8125"
   version="1.1"
   id="svg8"
   sodipodi:docname="back_blue.svg"
   inkscape:version="0.92.4 (5da689c313, 2019-01-14)">
  <defs
     id="defs2">
    <pattern
       inkscape:collect="always"
       xlink:href="#pattern1803"
       id="pattern1823"
       patternTransform="matrix(0.04535831,-0.01215368,0.01215368,0.04535831,7.5822568,303.1104)" />
    <pattern
       inkscape:collect="always"
       xlink:href="#pattern943"
       id="pattern1680"
       patternTransform="matrix(0.05025981,-0.01346709,0.01346709,0.05025981,8.4530743,317.54702)" />
    <linearGradient
       inkscape:collect="always"
       xlink:href="#linearGradient991"
       id="linearGradient1045"
       gradientUnits="userSpaceOnUse"
       gradientTransform="matrix(-0.42902934,0,0,-1,-17.2613,14.002907)"
       x1="-8.9799833"
       y1="8.2012739"
       x2="-15.808948"
       y2="8.2012739"
       spreadMethod="pad" />
    <linearGradient
       inkscape:collect="always"
       id="linearGradient991">
      <stop
         id="stop981"
         offset="0"
         style="stop-color:#000000;stop-opacity:0.7015177" />
      <stop
         id="stop983"
         offset="0.31993166"
         style="stop-color:#000000;stop-opacity:0.54637438" />
      <stop
         style="stop-color:#303030;stop-opacity:0.2900506"
         offset="0.63986331"
         id="stop985" />
      <stop
         id="stop987"
         offset="0.81993163"
         style="stop-color:#595959;stop-opacity:0.0910624" />
      <stop
         id="stop989"
         offset="1"
         style="stop-color:#000000;stop-opacity:0.50196081" />
    </linearGradient>
    <linearGradient
       inkscape:collect="always"
       xlink:href="#linearGradient991"
       id="linearGradient921"
       gradientUnits="userSpaceOnUse"
       gradientTransform="matrix(-1.7438905,0,0,-4.064735,-17.811259,46.899482)"
       x1="-8.9799833"
       y1="8.2012739"
       x2="-15.808948"
       y2="8.2012739"
       spreadMethod="pad" />
    <linearGradient
       inkscape:collect="always"
       xlink:href="#linearGradient991"
       id="linearGradient925"
       gradientUnits="userSpaceOnUse"
       gradientTransform="matrix(-1.7438905,0,0,-4.0647349,1.7024139,46.897526)"
       x1="-8.9799833"
       y1="8.2012739"
       x2="-15.808948"
       y2="8.2012739"
       spreadMethod="pad" />
    <linearGradient
       inkscape:collect="always"
       xlink:href="#linearGradient1020"
       id="linearGradient929"
       gradientUnits="userSpaceOnUse"
       gradientTransform="matrix(0,-0.42902934,1,0,-20.145131,2.8838315)"
       x1="-8.9799833"
       y1="8.2012739"
       x2="-15.808948"
       y2="8.2012739"
       spreadMethod="pad" />
    <linearGradient
       id="linearGradient1020"
       inkscape:collect="always">
      <stop
         id="stop1018"
         offset="0"
         style="stop-color:#000000;stop-opacity:0.50196081" />
      <stop
         id="stop1016"
         offset="0.18006837"
         style="stop-color:#595959;stop-opacity:0.0910624" />
      <stop
         style="stop-color:#303030;stop-opacity:0.2900506"
         offset="0.36013669"
         id="stop1014" />
      <stop
         id="stop1012"
         offset="0.68006834"
         style="stop-color:#000000;stop-opacity:0.54637438" />
      <stop
         id="stop1010"
         offset="1"
         style="stop-color:#000000;stop-opacity:0.7015177" />
    </linearGradient>
    <linearGradient
       inkscape:collect="always"
       xlink:href="#linearGradient1020"
       id="linearGradient933"
       gradientUnits="userSpaceOnUse"
       gradientTransform="matrix(0,-1.7438905,4.0647349,0,-29.533269,1.7082721)"
       x1="-8.9799833"
       y1="8.2012739"
       x2="-15.808948"
       y2="8.2012739"
       spreadMethod="pad" />
    <linearGradient
       inkscape:collect="always"
       xlink:href="#linearGradient1020"
       id="linearGradient937"
       gradientUnits="userSpaceOnUse"
       gradientTransform="matrix(0,-1.7438905,4.064735,0,-29.535223,-17.806378)"
       x1="-8.9799833"
       y1="8.2012739"
       x2="-15.808948"
       y2="8.2012739"
       spreadMethod="pad" />
    <linearGradient
       inkscape:collect="always"
       xlink:href="#linearGradient967"
       id="linearGradient920"
       gradientUnits="userSpaceOnUse"
       gradientTransform="matrix(1.4284568,0,0,4.0647349,-24.612911,3.5887992)"
       x1="-14.452528"
       y1="6.7365398"
       x2="-14.452528"
       y2="4.8658528"
       spreadMethod="repeat" />
    <linearGradient
       id="linearGradient967"
       inkscape:collect="always">
      <stop
         id="stop959"
         offset="0"
         style="stop-color:#000000;stop-opacity:0.5" />
      <stop
         style="stop-color:#313131;stop-opacity:0"
         offset="0.3500863"
         id="stop961" />
      <stop
         id="stop963"
         offset="0.7001726"
         style="stop-color:#f0f0f0;stop-opacity:0" />
      <stop
         id="stop965"
         offset="1"
         style="stop-color:#ffffff;stop-opacity:0.25098041" />
    </linearGradient>
    <linearGradient
       inkscape:collect="always"
       xlink:href="#linearGradient967"
       id="linearGradient940"
       gradientUnits="userSpaceOnUse"
       gradientTransform="matrix(0,1.4286103,-4.0647349,0,-10.057847,45.95158)"
       x1="-14.452528"
       y1="6.7365398"
       x2="-14.452528"
       y2="4.8658528"
       spreadMethod="repeat" />
    <linearGradient
       inkscape:collect="always"
       xlink:href="#linearGradient967"
       id="linearGradient942"
       gradientUnits="userSpaceOnUse"
       gradientTransform="matrix(0,1.4286103,-4.0647349,0,-10.057847,45.95158)"
       x1="-14.452528"
       y1="9.1369095"
       x2="-14.452528"
       y2="7.2657065"
       spreadMethod="repeat" />
    <linearGradient
       inkscape:collect="always"
       xlink:href="#linearGradient967"
       id="linearGradient906"
       gradientUnits="userSpaceOnUse"
       gradientTransform="matrix(1.4284568,0,0,4.0647349,-24.612911,3.5887992)"
       x1="-14.452528"
       y1="9.1369095"
       x2="-14.452528"
       y2="7.2657065"
       spreadMethod="repeat" />
    <pattern
       patternUnits="userSpaceOnUse"
       width="99.999998"
       height="99.999997"
       patternTransform="matrix(0.26458333,0,0,0.26458333,10.323961,270.64122)"
       id="pattern943">
      <g
         transform="matrix(20.827061,0,0,20.83123,318.24254,-101.36163)"
         inkscape:label="pattern: fiber cross"
         id="g825">
        <rect
           inkscape:label="flat"
           y="4.86585"
           x="-15.279762"
           height="4.7992821"
           width="4.8002439"
           id="rect1310"
           style="opacity:1;fill:#b62c2c;fill-opacity:1;fill-rule:nonzero;stroke:none;stroke-width:0.19698618;stroke-linecap:round;stroke-linejoin:round;stroke-miterlimit:4;stroke-dasharray:none;stroke-opacity:1;paint-order:stroke markers fill" />
        <g
           style="opacity:1"
           inkscape:label="3d effect"
           id="g1121">
          <g
             id="g1061"
             style="display:inline;opacity:1"
             inkscape:label="underpasses">
            <path
               sodipodi:nodetypes="ccccc"
               inkscape:connector-curvature="0"
               id="path1041"
               d="M -10.478797,6.7374164 V 4.8658498 h -2.93012 v 1.8715666 z"
               style="opacity:1;fill:url(#linearGradient1045);fill-opacity:1;fill-rule:nonzero;stroke:none;stroke-width:1.90633249;stroke-linecap:round;stroke-linejoin:round;stroke-miterlimit:4;stroke-dasharray:none;stroke-opacity:1;paint-order:stroke markers fill"
               inkscape:label="6" />
            <path
               inkscape:label="5"
               inkscape:connector-curvature="0"
               id="path919"
               transform="matrix(0.24601851,0,0,0.24601851,-15.279762,4.8648887)"
               d="m 0.00195313,9.7597656 v 7.6054684 0.002 H 9.7578125 V 9.7597656 Z"
               style="opacity:1;fill:url(#linearGradient921);fill-opacity:1;fill-rule:nonzero;stroke:none;stroke-width:7.74873638;stroke-linecap:round;stroke-linejoin:round;stroke-miterlimit:4;stroke-dasharray:none;stroke-opacity:1;paint-order:stroke markers fill" />
            <path
               inkscape:label="4"
               inkscape:connector-curvature="0"
               id="path923"
               transform="matrix(0.24601851,0,0,0.24601851,-15.279762,4.8648887)"
               d="m 17.361328,9.7578125 v 7.6074215 h 2.150391 V 9.7578125 Z"
               style="opacity:1;fill:url(#linearGradient925);fill-opacity:1;fill-rule:nonzero;stroke:none;stroke-width:7.74873638;stroke-linecap:round;stroke-linejoin:round;stroke-miterlimit:4;stroke-dasharray:none;stroke-opacity:1;paint-order:stroke markers fill" />
            <path
               inkscape:label="3"
               style="opacity:1;fill:url(#linearGradient929);fill-opacity:1;fill-rule:nonzero;stroke:none;stroke-width:1.90633249;stroke-linecap:round;stroke-linejoin:round;stroke-miterlimit:4;stroke-dasharray:none;stroke-opacity:1;paint-order:stroke markers fill"
               d="m -12.87964,9.6663342 h 1.871566 V 6.7362145 h -1.871566 z"
               id="path927"
               inkscape:connector-curvature="0"
               sodipodi:nodetypes="ccccc" />
            <path
               inkscape:label="2"
               inkscape:connector-curvature="0"
               id="path931"
               transform="matrix(0.24601851,0,0,0.24601851,-15.279762,4.8648887)"
               d="m 0,17.367188 v 2.148437 h 7.6074219 v -2.148437 z"
               style="opacity:1;fill:url(#linearGradient933);fill-opacity:1;fill-rule:nonzero;stroke:none;stroke-width:7.74873638;stroke-linecap:round;stroke-linejoin:round;stroke-miterlimit:4;stroke-dasharray:none;stroke-opacity:1;paint-order:stroke markers fill" />
            <path
               inkscape:label="1"
               inkscape:connector-curvature="0"
               id="path935"
               transform="matrix(0.24601851,0,0,0.24601851,-15.279762,4.8648887)"
               d="M -0.00195313,0.00390625 V 9.7636719 H 7.6035156 V 0.00390625 H 0 Z"
               style="opacity:1;fill:url(#linearGradient937);fill-opacity:1;fill-rule:nonzero;stroke:none;stroke-width:7.74873638;stroke-linecap:round;stroke-linejoin:round;stroke-miterlimit:4;stroke-dasharray:none;stroke-opacity:1;paint-order:stroke markers fill" />
          </g>
          <g
             id="g1019"
             style="display:inline;opacity:1"
             inkscape:label="rounding">
            <path
               inkscape:connector-curvature="0"
               id="path918"
               transform="matrix(0.24601851,0,0,0.24601851,-3.6683613,-0.88291101)"
               d="m -39.591797,23.367188 v 7.603515 h 11.90625 v -7.603515 z"
               style="opacity:1;fill:url(#linearGradient920);fill-opacity:1;fill-rule:nonzero;stroke:none;stroke-width:7.01301575;stroke-linecap:round;stroke-linejoin:round;stroke-miterlimit:4;stroke-dasharray:none;stroke-opacity:1;paint-order:stroke markers fill"
               inkscape:label="4" />
            <path
               inkscape:connector-curvature="0"
               id="path932"
               transform="matrix(0.24601851,0,0,0.24601851,-3.6683613,-0.88291101)"
               d="m -37.439453,30.970703 v 11.908203 h 7.603515 V 30.970703 Z"
               style="opacity:1;fill:url(#linearGradient940);fill-opacity:1;fill-rule:nonzero;stroke:none;stroke-width:7.01339245;stroke-linecap:round;stroke-linejoin:round;stroke-miterlimit:4;stroke-dasharray:none;stroke-opacity:1;paint-order:stroke markers fill"
               inkscape:label="3" />
            <path
               inkscape:connector-curvature="0"
               id="path934"
               transform="matrix(0.24601851,0,0,0.24601851,-3.6683613,-0.88291101)"
               d="m -47.197266,23.367188 v 19.511718 h 7.605469 v -2.15039 h -7.603515 v -7.607422 h 7.603515 v -9.753906 z"
               style="opacity:1;fill:url(#linearGradient942);fill-opacity:1;fill-rule:nonzero;stroke:none;stroke-width:7.01339245;stroke-linecap:round;stroke-linejoin:round;stroke-miterlimit:4;stroke-dasharray:none;stroke-opacity:1;paint-order:stroke markers fill"
               inkscape:label="2" />
            <path
               inkscape:connector-curvature="0"
               id="rect840"
               transform="matrix(0.24601851,0,0,0.24601851,-3.6683613,-0.88291101)"
               d="m -47.195312,33.121094 v 7.607422 h 9.755859 v -7.607422 z m 17.359374,0 v 7.607422 h 2.150391 v -7.607422 z"
               style="opacity:1;fill:url(#linearGradient906);fill-opacity:1;fill-rule:nonzero;stroke:none;stroke-width:7.01301575;stroke-linecap:round;stroke-linejoin:round;stroke-miterlimit:4;stroke-dasharray:none;stroke-opacity:1;paint-order:stroke markers fill"
               inkscape:label="1" />
          </g>
        </g>
      </g>
    </pattern>
    <linearGradient
       inkscape:collect="always"
       id="linearGradient4217">
      <stop
         style="stop-color:#131313;stop-opacity:0.99607843"
         offset="0"
         id="stop4213" />
      <stop
         id="stop4223"
         offset="0.25"
         style="stop-color:#2f2f2f;stop-opacity:0.99607843" />
      <stop
         id="stop4219"
         offset="0.5"
         style="stop-color:#424242;stop-opacity:0.99607843" />
      <stop
         style="stop-color:#565656;stop-opacity:0.99607843"
         offset="0.75"
         id="stop4221" />
      <stop
         style="stop-color:#3e3e3e;stop-opacity:0.99607843"
         offset="1"
         id="stop4215" />
    </linearGradient>
    <linearGradient
       id="linearGradient2965"
       inkscape:collect="always">
      <stop
         id="stop2961"
         offset="0"
         style="stop-color:#080808;stop-opacity:1" />
      <stop
         id="stop2963"
         offset="1"
         style="stop-color:#515151;stop-opacity:0.99607843" />
    </linearGradient>
    <linearGradient
       gradientTransform="matrix(0.13186796,0,0,0.38448362,60.240005,-5.6386154)"
       gradientUnits="userSpaceOnUse"
       y2="1.8005584"
       x2="107.9122"
       y1="1.8005584"
       x1="42.144127"
       id="linearGradient2967"
       xlink:href="#linearGradient2965"
       inkscape:collect="always" />
    <linearGradient
       y2="1.8005584"
       x2="107.9122"
       y1="1.8005584"
       x1="42.144127"
       gradientTransform="matrix(0.14035266,0,0,0.42105796,69.11315,3.927159)"
       gradientUnits="userSpaceOnUse"
       id="linearGradient4203"
       xlink:href="#linearGradient4217"
       inkscape:collect="always" />
    <linearGradient
       id="linearGradient846"
       inkscape:collect="always">
      <stop
         id="stop842"
         offset="0"
         style="stop-color:#272727;stop-opacity:1;" />
      <stop
         id="stop844"
         offset="1"
         style="stop-color:#ffffff;stop-opacity:1" />
    </linearGradient>
    <linearGradient
       gradientTransform="matrix(1.4748067,0,0,3.7795276,-36.435315,0)"
       spreadMethod="repeat"
       gradientUnits="userSpaceOnUse"
       y2="5.9407487"
       x2="-12.903201"
       y1="6.7367654"
       x1="-13.334804"
       id="linearGradient848"
       xlink:href="#linearGradient846"
       inkscape:collect="always" />
    <linearGradient
       inkscape:collect="always"
       xlink:href="#linearGradient991"
       id="linearGradient1783"
       gradientUnits="userSpaceOnUse"
       gradientTransform="matrix(-0.42902934,0,0,-1,-17.2613,14.002907)"
       x1="-8.9799833"
       y1="8.2012739"
       x2="-15.808948"
       y2="8.2012739"
       spreadMethod="pad" />
    <linearGradient
       inkscape:collect="always"
       xlink:href="#linearGradient991"
       id="linearGradient1785"
       gradientUnits="userSpaceOnUse"
       gradientTransform="matrix(-1.7438905,0,0,-4.064735,-17.811259,46.899482)"
       x1="-8.9799833"
       y1="8.2012739"
       x2="-15.808948"
       y2="8.2012739"
       spreadMethod="pad" />
    <linearGradient
       inkscape:collect="always"
       xlink:href="#linearGradient991"
       id="linearGradient1787"
       gradientUnits="userSpaceOnUse"
       gradientTransform="matrix(-1.7438905,0,0,-4.0647349,1.7024139,46.897526)"
       x1="-8.9799833"
       y1="8.2012739"
       x2="-15.808948"
       y2="8.2012739"
       spreadMethod="pad" />
    <linearGradient
       inkscape:collect="always"
       xlink:href="#linearGradient1020"
       id="linearGradient1789"
       gradientUnits="userSpaceOnUse"
       gradientTransform="matrix(0,-0.42902934,1,0,-20.145131,2.8838315)"
       x1="-8.9799833"
       y1="8.2012739"
       x2="-15.808948"
       y2="8.2012739"
       spreadMethod="pad" />
    <linearGradient
       inkscape:collect="always"
       xlink:href="#linearGradient1020"
       id="linearGradient1791"
       gradientUnits="userSpaceOnUse"
       gradientTransform="matrix(0,-1.7438905,4.0647349,0,-29.533269,1.7082721)"
       x1="-8.9799833"
       y1="8.2012739"
       x2="-15.808948"
       y2="8.2012739"
       spreadMethod="pad" />
    <linearGradient
       inkscape:collect="always"
       xlink:href="#linearGradient1020"
       id="linearGradient1793"
       gradientUnits="userSpaceOnUse"
       gradientTransform="matrix(0,-1.7438905,4.064735,0,-29.535223,-17.806378)"
       x1="-8.9799833"
       y1="8.2012739"
       x2="-15.808948"
       y2="8.2012739"
       spreadMethod="pad" />
    <linearGradient
       inkscape:collect="always"
       xlink:href="#linearGradient967"
       id="linearGradient1795"
       gradientUnits="userSpaceOnUse"
       gradientTransform="matrix(1.4284568,0,0,4.0647349,-24.612911,3.5887992)"
       x1="-14.452528"
       y1="6.7365398"
       x2="-14.452528"
       y2="4.8658528"
       spreadMethod="repeat" />
    <linearGradient
       inkscape:collect="always"
       xlink:href="#linearGradient967"
       id="linearGradient1797"
       gradientUnits="userSpaceOnUse"
       gradientTransform="matrix(0,1.4286103,-4.0647349,0,-10.057847,45.95158)"
       x1="-14.452528"
       y1="6.7365398"
       x2="-14.452528"
       y2="4.8658528"
       spreadMethod="repeat" />
    <linearGradient
       inkscape:collect="always"
       xlink:href="#linearGradient967"
       id="linearGradient1799"
       gradientUnits="userSpaceOnUse"
       gradientTransform="matrix(0,1.4286103,-4.0647349,0,-10.057847,45.95158)"
       x1="-14.452528"
       y1="9.1369095"
       x2="-14.452528"
       y2="7.2657065"
       spreadMethod="repeat" />
    <linearGradient
       inkscape:collect="always"
       xlink:href="#linearGradient967"
       id="linearGradient1801"
       gradientUnits="userSpaceOnUse"
       gradientTransform="matrix(1.4284568,0,0,4.0647349,-24.612911,3.5887992)"
       x1="-14.452528"
       y1="9.1369095"
       x2="-14.452528"
       y2="7.2657065"
       spreadMethod="repeat" />
    <pattern
       patternUnits="userSpaceOnUse"
       width="99.999998"
       height="99.999999"
       patternTransform="matrix(0.26458333,0,0,0.26458333,-31.088541,-3.8742563)"
       id="pattern1803">
      <g
         id="g825-7"
         inkscape:label="pattern: fiber cross"
         transform="matrix(20.827061,0,0,20.83123,318.24254,-101.36164)">
        <g
           id="g1121-8"
           inkscape:label="3d effect"
           style="opacity:1">
          <g
             inkscape:label="underpasses"
             style="display:inline;opacity:1"
             id="g1061-5">
            <path
               inkscape:label="6"
               style="opacity:1;fill:url(#linearGradient1783);fill-opacity:1;fill-rule:nonzero;stroke:none;stroke-width:1.90633249;stroke-linecap:round;stroke-linejoin:round;stroke-miterlimit:4;stroke-dasharray:none;stroke-opacity:1;paint-order:stroke markers fill"
               d="M -10.478797,6.7374164 V 4.8658498 h -2.93012 v 1.8715666 z"
               id="path1041-0"
               inkscape:connector-curvature="0"
               sodipodi:nodetypes="ccccc" />
            <path
               style="opacity:1;fill:url(#linearGradient1785);fill-opacity:1;fill-rule:nonzero;stroke:none;stroke-width:7.74873638;stroke-linecap:round;stroke-linejoin:round;stroke-miterlimit:4;stroke-dasharray:none;stroke-opacity:1;paint-order:stroke markers fill"
               d="m 0.00195313,9.7597656 v 7.6054684 0.002 H 9.7578125 V 9.7597656 Z"
               transform="matrix(0.24601851,0,0,0.24601851,-15.279762,4.8648887)"
               id="path919-0"
               inkscape:connector-curvature="0"
               inkscape:label="5" />
            <path
               style="opacity:1;fill:url(#linearGradient1787);fill-opacity:1;fill-rule:nonzero;stroke:none;stroke-width:7.74873638;stroke-linecap:round;stroke-linejoin:round;stroke-miterlimit:4;stroke-dasharray:none;stroke-opacity:1;paint-order:stroke markers fill"
               d="m 17.361328,9.7578125 v 7.6074215 h 2.150391 V 9.7578125 Z"
               transform="matrix(0.24601851,0,0,0.24601851,-15.279762,4.8648887)"
               id="path923-0"
               inkscape:connector-curvature="0"
               inkscape:label="4" />
            <path
               sodipodi:nodetypes="ccccc"
               inkscape:connector-curvature="0"
               id="path927-7"
               d="m -12.87964,9.6663342 h 1.871566 V 6.7362145 h -1.871566 z"
               style="opacity:1;fill:url(#linearGradient1789);fill-opacity:1;fill-rule:nonzero;stroke:none;stroke-width:1.90633249;stroke-linecap:round;stroke-linejoin:round;stroke-miterlimit:4;stroke-dasharray:none;stroke-opacity:1;paint-order:stroke markers fill"
               inkscape:label="3" />
            <path
               style="opacity:1;fill:url(#linearGradient1791);fill-opacity:1;fill-rule:nonzero;stroke:none;stroke-width:7.74873638;stroke-linecap:round;stroke-linejoin:round;stroke-miterlimit:4;stroke-dasharray:none;stroke-opacity:1;paint-order:stroke markers fill"
               d="m 0,17.367188 v 2.148437 h 7.6074219 v -2.148437 z"
               transform="matrix(0.24601851,0,0,0.24601851,-15.279762,4.8648887)"
               id="path931-8"
               inkscape:connector-curvature="0"
               inkscape:label="2" />
            <path
               style="opacity:1;fill:url(#linearGradient1793);fill-opacity:1;fill-rule:nonzero;stroke:none;stroke-width:7.74873638;stroke-linecap:round;stroke-linejoin:round;stroke-miterlimit:4;stroke-dasharray:none;stroke-opacity:1;paint-order:stroke markers fill"
               d="M -0.00195313,0.00390625 V 9.7636719 H 7.6035156 V 0.00390625 H 0 Z"
               transform="matrix(0.24601851,0,0,0.24601851,-15.279762,4.8648887)"
               id="path935-1"
               inkscape:connector-curvature="0"
               inkscape:label="1" />
          </g>
          <g
             inkscape:label="rounding"
             style="display:inline;opacity:1"
             id="g1019-7">
            <path
               inkscape:label="4"
               style="opacity:1;fill:url(#linearGradient1795);fill-opacity:1;fill-rule:nonzero;stroke:none;stroke-width:7.01301575;stroke-linecap:round;stroke-linejoin:round;stroke-miterlimit:4;stroke-dasharray:none;stroke-opacity:1;paint-order:stroke markers fill"
               d="m -39.591797,23.367188 v 7.603515 h 11.90625 v -7.603515 z"
               transform="matrix(0.24601851,0,0,0.24601851,-3.6683613,-0.88291101)"
               id="path918-2"
               inkscape:connector-curvature="0" />
            <path
               inkscape:label="3"
               style="opacity:1;fill:url(#linearGradient1797);fill-opacity:1;fill-rule:nonzero;stroke:none;stroke-width:7.01339245;stroke-linecap:round;stroke-linejoin:round;stroke-miterlimit:4;stroke-dasharray:none;stroke-opacity:1;paint-order:stroke markers fill"
               d="m -37.439453,30.970703 v 11.908203 h 7.603515 V 30.970703 Z"
               transform="matrix(0.24601851,0,0,0.24601851,-3.6683613,-0.88291101)"
               id="path932-4"
               inkscape:connector-curvature="0" />
            <path
               inkscape:label="2"
               style="opacity:1;fill:url(#linearGradient1799);fill-opacity:1;fill-rule:nonzero;stroke:none;stroke-width:7.01339245;stroke-linecap:round;stroke-linejoin:round;stroke-miterlimit:4;stroke-dasharray:none;stroke-opacity:1;paint-order:stroke markers fill"
               d="m -47.197266,23.367188 v 19.511718 h 7.605469 v -2.15039 h -7.603515 v -7.607422 h 7.603515 v -9.753906 z"
               transform="matrix(0.24601851,0,0,0.24601851,-3.6683613,-0.88291101)"
               id="path934-5"
               inkscape:connector-curvature="0" />
            <path
               inkscape:label="1"
               style="opacity:1;fill:url(#linearGradient1801);fill-opacity:1;fill-rule:nonzero;stroke:none;stroke-width:7.01301575;stroke-linecap:round;stroke-linejoin:round;stroke-miterlimit:4;stroke-dasharray:none;stroke-opacity:1;paint-order:stroke markers fill"
               d="m -47.195312,33.121094 v 7.607422 h 9.755859 v -7.607422 z m 17.359374,0 v 7.607422 h 2.150391 v -7.607422 z"
               transform="matrix(0.24601851,0,0,0.24601851,-3.6683613,-0.88291101)"
               id="rect840-0"
               inkscape:connector-curvature="0" />
          </g>
        </g>
      </g>
    </pattern>
  </defs>
  <sodipodi:namedview
     id="base"
     pagecolor="#ffffff"
     bordercolor="#666666"
     borderopacity="1.0"
     inkscape:pageopacity="0.0"
     inkscape:pageshadow="2"
     inkscape:zoom="3.959798"
     inkscape:cx="-9.8046027"
     inkscape:cy="32.815131"
     inkscape:document-units="px"
     inkscape:current-layer="layer1"
     showgrid="false"
     units="px"
     inkscape:window-width="1920"
     inkscape:window-height="1137"
     inkscape:window-x="1272"
     inkscape:window-y="-8"
     inkscape:window-maximized="1" />
  <metadata
     id="metadata5">
    <rdf:RDF>
      <cc:Work
         rdf:about="">
        <dc:format>image/svg+xml</dc:format>
        <dc:type
           rdf:resource="http://purl.org/dc/dcmitype/StillImage" />
        <dc:title></dc:title>
      </cc:Work>
    </rdf:RDF>
  </metadata>
  <g
     inkscape:label="playing card"
     id="layer1"
     transform="translate(0,-273.1875)"
     style="stroke:none">
    <rect
       ry="1.0056822"
       y="274.89471"
       x="1.611004"
       height="20.398046"
       width="12.652991"
       id="rect814"
       style="opacity:1;fill:#4262ee;fill-opacity:1;fill-rule:nonzero;stroke:none;stroke-width:0.26458332;stroke-linecap:round;stroke-linejoin:miter;stroke-miterlimit:4;stroke-dasharray:none;stroke-opacity:1;paint-order:markers fill stroke"
       inkscape:label="background" />
    <rect
       inkscape:label="contour"
       style="opacity:1;fill:url(#pattern1823);fill-opacity:1;fill-rule:nonzero;stroke:none;stroke-width:0.26458332;stroke-linecap:round;stroke-linejoin:miter;stroke-miterlimit:4;stroke-dasharray:none;stroke-opacity:1;paint-order:markers fill stroke"
       id="rect1821"
       width="12.652991"
       height="20.398046"
       x="1.611004"
       y="274.89471"
       ry="1.0056822"
       sodipodi:insensitive="true" />
  </g>
</svg>
